Lecture 6 - tibbles, data manipulation and introduction to graphics
…
tibbles

tibbles are nicer data frames

You may find it more convenient to work with tibbles instead of data frames

In particular, they have nicer and more informative default print settings

The dplyr functions we’ve been using are very nice because they map tibbles to other tibbles.

birthwt <- as_tibble(birthwt.df)
birthwt

## # A tibble: 189 x 10
##      low   age   lwt  race smoke   ptl    ht    ui   ftv   bwt
##    <int> <int> <int> <int> <int> <int> <int> <int> <int> <int>
##  1     0    19   182     2     0     0     0     1     0  2523
##  2     0    33   155     3     0     0     0     0     3  2551
##  3     0    20   105     1     1     0     0     0     1  2557
##  4     0    21   108     1     1     0     0     1     2  2594
##  5     0    18   107     1     1     0     0     1     0  2600
##  6     0    21   124     3     0     0     0     0     0  2622
##  7     0    22   118     1     0     0     0     0     1  2637
##  8     0    17   103     3     0     0     0     0     1  2637
##  9     0    29   123     1     1     0     0     0     1  2663
## 10     0    26   113     1     1     0     0     0     0  2665
## # ... with 179 more rows
…
colnames(birthwt)

##  [1] "low"   "age"   "lwt"   "race"  "smoke" "ptl"   "ht"    "ui"    "ftv"  
## [10] "bwt"

# the dolumn names are not very descripting 

colnames(birthwt)<- c("birthwt.below.2500", "mother.age", "mother.weight", "race", "mother.smokes",
                      "previous.prem.labor", "hypertension", "uterine.irr", "physician.visits",
                      "birthwt.grams")

# better names! 
birthwt

## # A tibble: 189 x 10
##    birthwt.below.2~ mother.age mother.weight  race mother.smokes
##               <int>      <int>         <int> <int>         <int>
##  1                0         19           182     2             0
##  2                0         33           155     3             0
##  3                0         20           105     1             1
##  4                0         21           108     1             1
##  5                0         18           107     1             1
##  6                0         21           124     3             0
##  7                0         22           118     1             0
##  8                0         17           103     3             0
##  9                0         29           123     1             1
## 10                0         26           113     1             1
## # ... with 179 more rows, and 5 more variables: previous.prem.labor <int>,
## #   hypertension <int>, uterine.irr <int>, physician.visits <int>,
## #   birthwt.grams <int>
…
colnames(birthwt)

##  [1] "birthwt.below.2500"  "mother.age"          "mother.weight"      
##  [4] "race"                "mother.smokes"       "previous.prem.labor"
##  [7] "hypertension"        "uterine.irr"         "physician.visits"   
## [10] "birthwt.grams"

birthwt

## # A tibble: 189 x 10
##    birthwt.below.2~ mother.age mother.weight  race mother.smokes
##               <int>      <int>         <int> <int>         <int>
##  1                0         19           182     2             0
##  2                0         33           155     3             0
##  3                0         20           105     1             1
##  4                0         21           108     1             1
##  5                0         18           107     1             1
##  6                0         21           124     3             0
##  7                0         22           118     1             0
##  8                0         17           103     3             0
##  9                0         29           123     1             1
## 10                0         26           113     1             1
## # ... with 179 more rows, and 5 more variables: previous.prem.labor <int>,
## #   hypertension <int>, uterine.irr <int>, physician.visits <int>,
## #   birthwt.grams <int>
…
All the factors are currently represented as integers

Let’s use the mutate(), mutate_at() and recode_factor() functions to convert variables to factors and give the factors more meaningful levels

#birthwt

birthwt<- birthwt %>%
mutate(race = recode_factor(race, `1`= "white", `2` = "black" , `3` = "other")) %>%
  mutate_at(c("mother.smokes", "hypertension", "uterine.irr", "birthwt.below.2500"),
            ~ recode_factor(.x, `0`= "no", `1` ="yes") )

birthwt

## # A tibble: 189 x 10
##    birthwt.below.2~ mother.age mother.weight race  mother.smokes
##    <fct>                 <int>         <int> <fct> <fct>        
##  1 no                       19           182 black no           
##  2 no                       33           155 other no           
##  3 no                       20           105 white yes          
##  4 no                       21           108 white yes          
##  5 no                       18           107 white yes          
##  6 no                       21           124 other no           
##  7 no                       22           118 white no           
##  8 no                       17           103 other no           
##  9 no                       29           123 white yes          
## 10 no                       26           113 white yes          
## # ... with 179 more rows, and 5 more variables: previous.prem.labor <int>,
## #   hypertension <fct>, uterine.irr <fct>, physician.visits <int>,
## #   birthwt.grams <int>
…
